Chapter 6 Introduction to dplyr | Introduction to Tabular Data in R: Using usaspending.gov
…
loans_data_version2 %>%
  group_by(cfda_title, primary_place_of_performance_state_name) %>%
  summarise(sum_loans = sum(face_value_of_loan))

## `summarise()` has grouped output by 'cfda_title'. You can override using the
## `.groups` argument.

## # A tibble: 304 × 3
## # Groups:   cfda_title [7]
##    cfda_title                      primary_place_of_performance_state_…¹ sum_l…²
##    <chr>                           <chr>                                   <dbl>
##  1 504 CERTIFIED DEVELOPMENT LOANS ALABAMA                                1.99e7
##  2 504 CERTIFIED DEVELOPMENT LOANS ALASKA                                 1.29e6
##  3 504 CERTIFIED DEVELOPMENT LOANS ARIZONA                                9.78e7
##  4 504 CERTIFIED DEVELOPMENT LOANS ARKANSAS                               4.60e6
##  5 504 CERTIFIED DEVELOPMENT LOANS CALIFORNIA                             9.81e8
##  6 504 CERTIFIED DEVELOPMENT LOANS COLORADO                               1.14e8
##  7 504 CERTIFIED DEVELOPMENT LOANS CONNECTICUT                            3.63e7
##  8 504 CERTIFIED DEVELOPMENT LOANS DELAWARE                               3.09e6
##  9 504 CERTIFIED DEVELOPMENT LOANS DISTRICT OF COLUMBIA                  -1.72e5
## 10 504 CERTIFIED DEVELOPMENT LOANS FLORIDA                                3.16e8
## # … with 294 more rows, and abbreviated variable names
## #   ¹​primary_place_of_performance_state_name, ²​sum_loans
…
