June 6 Analysis
…
## [1] 27887

## [1] "tweet quote percent:"

## [1] 6.669885

## [1] "reply percent:"

## [1] 1.965833

Yearly Top 15 Words

## Joining, by = "word"

## # A tibble: 90 x 3
## # Groups:   year [6]
##     year word           n
##    <dbl> <chr>      <int>
##  1  2014 hiv          616
##  2  2014 prep         242
##  3  2014 aids         158
##  4  2014 new          111
##  5  2014 prevention   111
##  6  2014 sex          103
##  7  2014 get           91
##  8  2014 can           90
##  9  2014 know          78
## 10  2014 tested        74
## #  with 80 more rows
…
## .
##     HIV_Insight Sex_Worker_Hlth   Hlth_Literacy         DrMbere      HIVIreland 
##            3385             573             488             472             398 
##           St4ss  EPICBrowardOrg          UNAIDS  Health_HIV2030  HopeAndHelpInc 
##             337             298             269             246             221 
##    himmoderator   itech_network       one2oneKE  GMIPartnership   Prison_Health 
##             183             181             170             162             161 
##   HIVpxresearch   ProceedNCTSTA      AniShakari       UNAIDS_AP     AIDSFreeGen 
##             154             140             113             111             110

Yearly Top 15 Words for Condom Tweets

## Joining, by = "word"

## # A tibble: 93 x 3
## # Groups:   year [6]
##     year word        n
##    <dbl> <chr>   <int>
##  1  2014 hiv        26
##  2  2014 use        25
##  3  2014 sex        24
##  4  2014 free       11
##  5  2014 can        10
##  6  2014 female     10
##  7  2014 male        9
##  8  2014 aids        8
##  9  2014 safesex     8
## 10  2014 get         7
## #  with 83 more rows

Note: if there seems to be multiple words joined into one, either the author omitted the space or it came from a hashtag.

Yearly Top 15 Words for PrEP Tweets

## Joining, by = "word"

## # A tibble: 94 x 3
## # Groups:   year [6]
##     year word             n
##    <dbl> <chr>        <int>
##  1  2014 hiv             57
##  2  2014 truvada         36
##  3  2014 gay             23
##  4  2014 truvadawhore    23
##  5  2014 14              22
##  6  2014 6               22
##  7  2014 hivnemus        22
##  8  2014 new             22
##  9  2014 webinar         19
## 10  2014 pre             16
## #  with 84 more rows

Note: if there seems to be multiple words joined into one, either the author omitted the space or it came from a hashtag.

Yearly Top 15 Words for Circumcision Tweets

## Joining, by = "word"

## # A tibble: 201 x 3
## # Groups:   year [6]
##     year word           n
##    <dbl> <chr>      <int>
##  1  2014 male          15
##  2  2014 hiv           11
##  3  2014 medical        9
##  4  2014 voluntary      9
##  5  2014 vmmc           7
##  6  2014 sex            5
##  7  2014 6              4
##  8  2014 guidelines     3
##  9  2014 infection      3
## 10  2014 masturbate     3
## #  with 191 more rows

Note: if there seems to be multiple words joined into one, either the author omitted the space or it came from a hashtag.

Yearly Top 15 Words for Abstinence Tweets

## Joining, by = "word"

## # A tibble: 248 x 3
## # Groups:   year [6]
##     year word            n
##    <dbl> <chr>       <int>
##  1  2014 intercourse     1
##  2  2014 means           1
##  3  2014 refraining      1
##  4  2014 sex             1
##  5  2014 sexual          1
##  6  2014 simply          1
##  7  2015 pay             3
##  8  2015 votes           3
##  9  2015 defund          2
## 10  2015 house           2
## #  with 238 more rows
…
