dplyr Part 2 - hands-on exercise
…
rename() verb to change variable name

rename() is an excellent function or verb to rename your variables. It follows a simple format: rename(new_name = old_name), where new_name represents the new variable name and old_name represents the previous variable name

Example 1: The example below changes the name of dep_time into departure_time

flights |> 
  rename(departure_time = dep_time) 

# A tibble: 336,776 × 19
    year month   day departure_time sched_dep_time dep_delay arr_time
   <int> <int> <int>          <int>          <int>     <dbl>    <int>
 1  2013     1     1            517            515         2      830
 2  2013     1     1            533            529         4      850
 3  2013     1     1            542            540         2      923
 4  2013     1     1            544            545        -1     1004
 5  2013     1     1            554            600        -6      812
 6  2013     1     1            554            558        -4      740
 7  2013     1     1            555            600        -5      913
 8  2013     1     1            557            600        -3      709
 9  2013     1     1            557            600        -3      838
10  2013     1     1            558            600        -2      753
# ℹ 336,766 more rows
# ℹ 12 more variables: sched_arr_time <int>, arr_delay <dbl>, carrier <chr>,
#   flight <int>, tailnum <chr>, origin <chr>, dest <chr>, air_time <dbl>,
#   distance <dbl>, hour <dbl>, minute <dbl>, time_hour <dttm>

Example 2: The example below changes the name of multiple variables

flights |> 
  rename(departure_time = dep_time, flight_year = year) 

# A tibble: 336,776 × 19
   flight_year month   day departure_time sched_dep_time dep_delay arr_time
         <int> <int> <int>          <int>          <int>     <dbl>    <int>
 1        2013     1     1            517            515         2      830
 2        2013     1     1            533            529         4      850
 3        2013     1     1            542            540         2      923
 4        2013     1     1            544            545        -1     1004
 5        2013     1     1            554            600        -6      812
 6        2013     1     1            554            558        -4      740
 7        2013     1     1            555            600        -5      913
 8        2013     1     1            557            600        -3      709
 9        2013     1     1            557            600        -3      838
10        2013     1     1            558            600        -2      753
# ℹ 336,766 more rows
# ℹ 12 more variables: sched_arr_time <int>, arr_delay <dbl>, carrier <chr>,
#   flight <int>, tailnum <chr>, origin <chr>, dest <chr>, air_time <dbl>,
#   distance <dbl>, hour <dbl>, minute <dbl>, time_hour <dttm>

Practice #1 (2 mins practice)

Using the rename() verb, print flights after renaming: month into flight_month, day into flight_date, and year into flight_year

# Fill in your solution below:
flights |>
  rename(flight_month = month, flight_date = day, flight_year = year)

# A tibble: 336,776 × 19
   flight_year flight_month flight_date dep_time sched_dep_time dep_delay
         <int>        <int>       <int>    <int>          <int>     <dbl>
 1        2013            1           1      517            515         2
 2        2013            1           1      533            529         4
 3        2013            1           1      542            540         2
 4        2013            1           1      544            545        -1
 5        2013            1           1      554            600        -6
 6        2013            1           1      554            558        -4
 7        2013            1           1      555            600        -5
 8        2013            1           1      557            600        -3
 9        2013            1           1      557            600        -3
10        2013            1           1      558            600        -2
# ℹ 336,766 more rows
# ℹ 13 more variables: arr_time <int>, sched_arr_time <int>, arr_delay <dbl>,
#   carrier <chr>, flight <int>, tailnum <chr>, origin <chr>, dest <chr>,
#   air_time <dbl>, distance <dbl>, hour <dbl>, minute <dbl>, time_hour <dttm>
# Syntax below is equivalent and preferred by data scientists in general
# flights |>
#  rename(flight_month = month, 
#         flight_date = day, 
#         flight_year = year)

relocate() verb to move variables to the left-most columns

relocate() allows you to move variables to the left-most columns of the data frame. Often when you share data, certain columns are more important to data receivers, so you typically move those important columns to the left-most columns. You simply feed the name of the variable(s) you want to highlight as arguments inside relocate()

Here is an example where you move both time_hour and air_time to the left-most columns:

flights

# A tibble: 336,776 × 19
    year month   day dep_time sched_dep_time dep_delay arr_time sched_arr_time
   <int> <int> <int>    <int>          <int>     <dbl>    <int>          <int>
 1  2013     1     1      517            515         2      830            819
 2  2013     1     1      533            529         4      850            830
 3  2013     1     1      542            540         2      923            850
 4  2013     1     1      544            545        -1     1004           1022
 5  2013     1     1      554            600        -6      812            837
 6  2013     1     1      554            558        -4      740            728
 7  2013     1     1      555            600        -5      913            854
 8  2013     1     1      557            600        -3      709            723
 9  2013     1     1      557            600        -3      838            846
10  2013     1     1      558            600        -2      753            745
# ℹ 336,766 more rows
# ℹ 11 more variables: arr_delay <dbl>, carrier <chr>, flight <int>,
#   tailnum <chr>, origin <chr>, dest <chr>, air_time <dbl>, distance <dbl>,
#   hour <dbl>, minute <dbl>, time_hour <dttm>

flights |> 
  relocate(time_hour, air_time)

# A tibble: 336,776 × 19
   time_hour           air_time  year month   day dep_time sched_dep_time
   <dttm>                 <dbl> <int> <int> <int>    <int>          <int>
 1 2013-01-01 05:00:00      227  2013     1     1      517            515
 2 2013-01-01 05:00:00      227  2013     1     1      533            529
 3 2013-01-01 05:00:00      160  2013     1     1      542            540
 4 2013-01-01 05:00:00      183  2013     1     1      544            545
 5 2013-01-01 06:00:00      116  2013     1     1      554            600
 6 2013-01-01 05:00:00      150  2013     1     1      554            558
 7 2013-01-01 06:00:00      158  2013     1     1      555            600
 8 2013-01-01 06:00:00       53  2013     1     1      557            600
 9 2013-01-01 06:00:00      140  2013     1     1      557            600
10 2013-01-01 06:00:00      138  2013     1     1      558            600
# ℹ 336,766 more rows
# ℹ 12 more variables: dep_delay <dbl>, arr_time <int>, sched_arr_time <int>,
#   arr_delay <dbl>, carrier <chr>, flight <int>, tailnum <chr>, origin <chr>,
#   dest <chr>, distance <dbl>, hour <dbl>, minute <dbl>

distinct() verb for uniqueness: Case 1

Case 1 use of distinct(): Finding Unique Value of one particular variable

Let us go back to the flights data.

Suppose you want to know the unique values for dist (destination airports). Then we can feed dest inside distinct() to instruct R to print the unique values for dest.

flights |> 
  distinct(dest)

# A tibble: 105 × 1
   dest 
   <chr>
 1 IAH  
 2 MIA  
 3 BQN  
 4 ATL  
 5 ORD  
 6 FLL  
 7 IAD  
 8 MCO  
 9 PBI  
10 TPA  
# ℹ 95 more rows

If you are interested in arranging data alphabetically, you may use arrange()

# Let us fill this in as a class
flights |> 
  distinct(dest) |>
  arrange(dest)

# A tibble: 105 × 1
   dest 
   <chr>
 1 ABQ  
 2 ACK  
 3 ALB  
 4 ANC  
 5 ATL  
 6 AUS  
 7 AVL  
 8 BDL  
 9 BGR  
10 BHM  
# ℹ 95 more rows

distinct() verb for uniqueness: Case 2

Here is an example below where we want to print out the unique combinations of multiple variables. In this example, let us see unique combination of: origin and destination airports, and then arranging the date alphabetically:

flights |> 
  distinct(origin, dest) |>
  arrange(origin, dest)

# A tibble: 224 × 2
   origin dest 
   <chr>  <chr>
 1 EWR    ALB  
 2 EWR    ANC  
 3 EWR    ATL  
 4 EWR    AUS  
 5 EWR    AVL  
 6 EWR    BDL  
 7 EWR    BNA  
 8 EWR    BOS  
 9 EWR    BQN  
10 EWR    BTV  
# ℹ 214 more rows

count() verb for uniqueness

The count verb is similar to distinct() that it helps you print out unique contents of a variable or unique combinations of multiple variables. But the difference is that it will print out the unique contents with their respective counts:

flights |> 
  count(dest)

# A tibble: 105 × 2
   dest      n
   <chr> <int>
 1 ABQ     254
 2 ACK     265
 3 ALB     439
 4 ANC       8
 5 ATL   17215
 6 AUS    2439
 7 AVL     275
 8 BDL     443
 9 BGR     375
10 BHM     297
# ℹ 95 more rows

This one prints the unique combination of two variables we inputted with their respective counts:

flights |> 
  count(origin, dest) 

# A tibble: 224 × 3
   origin dest      n
   <chr>  <chr> <int>
 1 EWR    ALB     439
 2 EWR    ANC       8
 3 EWR    ATL    5022
 4 EWR    AUS     968
 5 EWR    AVL     265
 6 EWR    BDL     443
 7 EWR    BNA    2336
 8 EWR    BOS    5327
 9 EWR    BQN     297
10 EWR    BTV     931
# ℹ 214 more rows

Practice #2 (2 mins practice)

Load starwars, a built-in dataset from tidyverse, into you R environment.

Using either distinct() or count(), also print the unique combinations of homeworld and species variables from starwars

# Fill in your solution below:
data("starwars")

starwars |>
  distinct(homeworld, species) |>
  arrange(homeworld, species) # not required, always nice

# A tibble: 57 × 2
   homeworld      species  
   <chr>          <chr>    
 1 Alderaan       Human    
 2 Aleen Minor    Aleena   
 3 Bespin         Human    
 4 Bestine IV     <NA>     
 5 Cato Neimoidia Neimodian
 6 Cerea          Cerean   
 7 Champala       Chagrian 
 8 Chandrila      Human    
 9 Concord Dawn   Human    
10 Corellia       Human    
# ℹ 47 more rows

starwars |>
  count(homeworld, species) 

# A tibble: 57 × 3
   homeworld      species       n
   <chr>          <chr>     <int>
 1 Alderaan       Human         3
 2 Aleen Minor    Aleena        1
 3 Bespin         Human         1
 4 Bestine IV     <NA>          1
 5 Cato Neimoidia Neimodian     1
 6 Cerea          Cerean        1
 7 Champala       Chagrian      1
 8 Chandrila      Human         1
 9 Concord Dawn   Human         1
10 Corellia       Human         2
# ℹ 47 more rows
…
# na.rm = TRUE or na.rm = T

Practice #3b

Using the starwars data you loaded earlier in Practice #3, calculate the mean mass broken down by species and gender (you will have two variables separated by a comma inside the group_by statement this time):

# Type in your script below:
starwars |>
  group_by(species, gender) |>
  summarize(mean_mass = mean(mass, na.rm = TRUE))

`summarise()` has grouped output by 'species'. You can override using the
`.groups` argument.

# A tibble: 42 × 3
# Groups:   species [38]
   species   gender    mean_mass
   <chr>     <chr>         <dbl>
 1 Aleena    masculine      15  
 2 Besalisk  masculine     102  
 3 Cerean    masculine      82  
 4 Chagrian  masculine     NaN  
 5 Clawdite  feminine       55  
 6 Droid     feminine      NaN  
 7 Droid     masculine      69.8
 8 Dug       masculine      40  
 9 Ewok      masculine      20  
10 Geonosian masculine      80  
# ℹ 32 more rows
…
mutate() verb - dichotomy of numerical variable into binary variable (dummy variables)

In data analysis, particularly in public health and medicine, we often breakdown numerical variables into binary variables (0/1, yes/no). We often refer to this as creating dummy variables we use for data analysis.

We know from whenever dep_delay is negative, the flight actually departed early.

Suppose we want to create a dummy variable called departed_early with values “yes” if dep_delay is negative, otherwise, the value is “no”, then below is an example on how you may leverage the ifelse() statement below:

flights |>
  mutate(departed_early = ifelse(dep_delay < 0, "Yes", "No")) |>
  relocate(departed_early) 

# A tibble: 336,776 × 20
   departed_early  year month   day dep_time sched_dep_time dep_delay arr_time
   <chr>          <int> <int> <int>    <int>          <int>     <dbl>    <int>
 1 No              2013     1     1      517            515         2      830
 2 No              2013     1     1      533            529         4      850
 3 No              2013     1     1      542            540         2      923
 4 Yes             2013     1     1      544            545        -1     1004
 5 Yes             2013     1     1      554            600        -6      812
 6 Yes             2013     1     1      554            558        -4      740
 7 Yes             2013     1     1      555            600        -5      913
 8 Yes             2013     1     1      557            600        -3      709
 9 Yes             2013     1     1      557            600        -3      838
10 Yes             2013     1     1      558            600        -2      753
# ℹ 336,766 more rows
# ℹ 12 more variables: sched_arr_time <int>, arr_delay <dbl>, carrier <chr>,
#   flight <int>, tailnum <chr>, origin <chr>, dest <chr>, air_time <dbl>,
#   distance <dbl>, hour <dbl>, minute <dbl>, time_hour <dttm>

# remember, relocate moves variable you specify to the left most corner;

Practice #7 (2 mins practice)

Using the flights data, create a dummy variable called departed_super_late. Using ifelse(), assign a value of 1 if dep_delay is greater than 60. Otherwise, assign a value of 0.

# Type in your script below:
flights |>
  mutate(departed_super_late = ifelse(dep_delay > 60, 1, 0)) 

# A tibble: 336,776 × 20
    year month   day dep_time sched_dep_time dep_delay arr_time sched_arr_time
   <int> <int> <int>    <int>          <int>     <dbl>    <int>          <int>
 1  2013     1     1      517            515         2      830            819
 2  2013     1     1      533            529         4      850            830
 3  2013     1     1      542            540         2      923            850
 4  2013     1     1      544            545        -1     1004           1022
 5  2013     1     1      554            600        -6      812            837
 6  2013     1     1      554            558        -4      740            728
 7  2013     1     1      555            600        -5      913            854
 8  2013     1     1      557            600        -3      709            723
 9  2013     1     1      557            600        -3      838            846
10  2013     1     1      558            600        -2      753            745
# ℹ 336,766 more rows
# ℹ 12 more variables: arr_delay <dbl>, carrier <chr>, flight <int>,
#   tailnum <chr>, origin <chr>, dest <chr>, air_time <dbl>, distance <dbl>,
#   hour <dbl>, minute <dbl>, time_hour <dttm>, departed_super_late <dbl>

# added so it is easy to compare visually between departed_super_late and dep_delay
flights |>
  mutate(departed_super_late = ifelse(dep_delay > 60, 1, 0)) |>
  relocate(departed_super_late)

# A tibble: 336,776 × 20
   departed_super_late  year month   day dep_time sched_dep_time dep_delay
                 <dbl> <int> <int> <int>    <int>          <int>     <dbl>
 1                   0  2013     1     1      517            515         2
 2                   0  2013     1     1      533            529         4
 3                   0  2013     1     1      542            540         2
 4                   0  2013     1     1      544            545        -1
 5                   0  2013     1     1      554            600        -6
 6                   0  2013     1     1      554            558        -4
 7                   0  2013     1     1      555            600        -5
 8                   0  2013     1     1      557            600        -3
 9                   0  2013     1     1      557            600        -3
10                   0  2013     1     1      558            600        -2
# ℹ 336,766 more rows
# ℹ 13 more variables: arr_time <int>, sched_arr_time <int>, arr_delay <dbl>,
#   carrier <chr>, flight <int>, tailnum <chr>, origin <chr>, dest <chr>,
#   air_time <dbl>, distance <dbl>, hour <dbl>, minute <dbl>, time_hour <dttm>
…
