Data 312 Lecture10
…
# Identifies top 10 words for each book
top10_words <- book_words_scored |>
  group_by(book) |>
  slice_max(tf_idf, n = 10) 
# again, tf_idf and n = 10 inside slice_max() tells R that you want the top 10 for each book of entries with the highest values of tf_idf

top10_words

# A tibble: 60 × 6
# Groups:   book [6]
   book                word           n       tf   idf  tf_idf
   <fct>               <chr>      <int>    <dbl> <dbl>   <dbl>
 1 Sense & Sensibility elinor       623 0.00519   1.79 0.00931
 2 Sense & Sensibility marianne     492 0.00410   1.79 0.00735
 3 Sense & Sensibility dashwood     231 0.00193   1.79 0.00345
 4 Sense & Sensibility jennings     199 0.00166   1.79 0.00297
 5 Sense & Sensibility willoughby   181 0.00151   1.79 0.00270
 6 Sense & Sensibility brandon      119 0.000992  1.79 0.00178
 7 Sense & Sensibility ferrars      114 0.000950  1.79 0.00170
 8 Sense & Sensibility lucy         160 0.00133   1.10 0.00147
 9 Sense & Sensibility barton        89 0.000742  1.79 0.00133
10 Sense & Sensibility middleton     87 0.000725  1.79 0.00130
# ℹ 50 more rows
…
# Identifies top 15 words for each book using slice_max() and save new table/data into the R env't
# then use head() to visualize new table
top15physics_words <- physics_scored |>
  group_by(author) |>
  slice_max(tf_idf, n = 15)

top15physics_words

# A tibble: 60 × 6
# Groups:   author [4]
   author           word               n      tf   idf  tf_idf
   <chr>            <chr>          <int>   <dbl> <dbl>   <dbl>
 1 Einstein, Albert relativity       193 0.00614 1.39  0.00851
 2 Einstein, Albert gravitational     87 0.00277 1.39  0.00383
 3 Einstein, Albert co               127 0.00404 0.693 0.00280
 4 Einstein, Albert ordinate          60 0.00191 1.39  0.00264
 5 Einstein, Albert _x                57 0.00181 1.39  0.00251
 6 Einstein, Albert continuum         54 0.00172 1.39  0.00238
 7 Einstein, Albert dimensional       53 0.00169 1.39  0.00234
 8 Einstein, Albert euclidean         51 0.00162 1.39  0.00225
 9 Einstein, Albert transformation    51 0.00162 1.39  0.00225
10 Einstein, Albert carriage          50 0.00159 1.39  0.00220
# ℹ 50 more rows
…
This requires some creativity for usage. Some examples below to follow:

For example, if you are interested in mentions of specific street names, you can use the code below to determine most common streets mentioned:

bigrams_filtered_counts |>
  filter(word2 == "street") |>
  group_by(book, word1, word2) |>
  summarise(n = n()) |>
  arrange(-n) # again -n is the same as desc(n)

`summarise()` has grouped output by 'book', 'word1'. You can override using the
`.groups` argument.

# A tibble: 33 × 4
# Groups:   book, word1 [33]
   book                word1       word2      n
   <fct>               <chr>       <chr>  <int>
 1 Sense & Sensibility berkeley    street     1
 2 Sense & Sensibility bond        street     1
 3 Sense & Sensibility conduit     street     1
 4 Sense & Sensibility harley      street     1
 5 Sense & Sensibility james       street     1
 6 Sense & Sensibility park        street     1
 7 Sense & Sensibility sackville   street     1
 8 Pride & Prejudice   edward      street     1
 9 Pride & Prejudice   gracechurch street     1
10 Pride & Prejudice   grosvenor   street     1
# ℹ 23 more rows

Here’s another example where we look at how beauty is referenced in bigram pairs (when beauty is either in word1 or word2):

bigrams_filtered_counts |>
  filter(word1 == "beauty" | word2 == "beauty") |>
  group_by(book, word1, word2) |>
  summarise(n = n()) 

`summarise()` has grouped output by 'book', 'word1'. You can override using the
`.groups` argument.

# A tibble: 38 × 4
# Groups:   book, word1 [33]
   book                word1        word2         n
   <fct>               <chr>        <chr>     <int>
 1 Sense & Sensibility beauty       courting      1
 2 Sense & Sensibility considerable beauty        1
 3 Sense & Sensibility manly        beauty        1
 4 Sense & Sensibility picturesque  beauty        1
 5 Sense & Sensibility rising       beauty        1
 6 Sense & Sensibility unites       beauty        1
 7 Sense & Sensibility youth        beauty        1
 8 Pride & Prejudice   beauty       elegance      1
 9 Pride & Prejudice   beauty       miss          1
10 Pride & Prejudice   beauty       succeeded     1
# ℹ 28 more rows

Here’s another example where we look at how Eleanor (character from Northanger Abbey) is referenced:

bigrams_filtered_counts |>
  filter(word1 == "eleanor" | word2 == "eleanor") |>
  group_by(book, word1, word2) |>
  summarise(n = n()) |>
  arrange(-n) # again -n is the same as desc(n)

`summarise()` has grouped output by 'book', 'word1'. You can override using the
`.groups` argument.

# A tibble: 29 × 4
# Groups:   book, word1 [18]
   book             word1      word2       n
   <fct>            <chr>      <chr>   <int>
 1 Northanger Abbey added      eleanor     1
 2 Northanger Abbey addressing eleanor     1
 3 Northanger Abbey dear       eleanor     1
 4 Northanger Abbey distressed eleanor     1
 5 Northanger Abbey door       eleanor     1
 6 Northanger Abbey eleanor    brought     1
 7 Northanger Abbey eleanor    coldly      1
 8 Northanger Abbey eleanor    cried       1
 9 Northanger Abbey eleanor    entered     1
10 Northanger Abbey eleanor    leave       1
# ℹ 19 more rows
…
Using the data frame you created above and the R chunk provided below, show a subset where “rays” is mentioned in either word1 or word2 to get context around this word:

# Task 2.b. 
bigram_tbl_newton |>
  filter(word1 == "rays" | word2 == "rays")

# A tibble: 91 × 4
# Groups:   author, word1 [28]
   author        word1         word2     n
   <chr>         <chr>         <chr> <int>
 1 Newton, Isaac refrangible   rays     75
 2 Newton, Isaac incident      rays     16
 3 Newton, Isaac heterogeneous rays      9
 4 Newton, Isaac refracted     rays      9
 5 Newton, Isaac rays          fall      7
 6 Newton, Isaac emergent      rays      6
 7 Newton, Isaac rays          flow      6
 8 Newton, Isaac rays          pass      5
 9 Newton, Isaac sun's         rays      5
10 Newton, Isaac perpendicular rays      4
# ℹ 81 more rows
…
# Creates the top 10 words using tf_idf score for each book
austen_bigram_tf_idf <- austen_pair_tidy |>
  group_by(book, bigram) |>
  summarise(n = n()) |>
  bind_tf_idf(term = bigram, document = book, n = n) |>
  group_by(book) |>
  slice_max(tf_idf, n = 10)

`summarise()` has grouped output by 'book'. You can override using the
`.groups` argument.

austen_bigram_tf_idf 

# A tibble: 60 × 6
# Groups:   book [6]
   book                bigram              n       tf   idf   tf_idf
   <fct>               <chr>           <int>    <dbl> <dbl>    <dbl>
 1 Sense & Sensibility mrs jennings      185 0.00169   1.79 0.00303 
 2 Sense & Sensibility mrs dashwood       97 0.000887  1.79 0.00159 
 3 Sense & Sensibility colonel brandon    96 0.000878  1.79 0.00157 
 4 Sense & Sensibility sir john           94 0.000860  1.79 0.00154 
 5 Sense & Sensibility lady middleton     75 0.000686  1.79 0.00123 
 6 Sense & Sensibility mrs ferrars        57 0.000521  1.79 0.000934
 7 Sense & Sensibility said elinor        56 0.000512  1.79 0.000917
 8 Sense & Sensibility miss dashwood      55 0.000503  1.79 0.000901
 9 Sense & Sensibility and elinor         52 0.000475  1.79 0.000852
10 Sense & Sensibility marianne was       45 0.000411  1.79 0.000737
# ℹ 50 more rows
…
