Lecture 8
…
The next step is to use mutate() with predict() to assess probability of outcome for each data row (probability is between 0 and 1):

# calculate probability of outcome
# note: this is not the final code
test_heart_data |>
  mutate(probability_outcome = predict(final_model, # prediction model
                                       newdata = test_heart_data, # test data
                                       type="response")) 

# A tibble: 100 × 4
   heart_attack isFemale   age probability_outcome
          <dbl>    <dbl> <dbl>               <dbl>
 1            1        0    92               0.573
 2            0        1    78               0.783
 3            0        1    51               0.495
 4            1        1    76               0.766
 5            0        1    80               0.799
 6            0        0    47               0.132
 7            1        0    75               0.371
 8            1        0    89               0.537
 9            1        1    91               0.871
10            0        0    97               0.631
# ℹ 90 more rows

# calculate probability of outcome 
# then use 0.5 cutoff
# If probability of heart attack exceed 50% (0.5), predict a heart attack
test_heart_data_v2 <- test_heart_data |>
  mutate(probability_outcome = predict(final_model,  # prediction model
                                       newdata = test_heart_data, # test data
                                       type="response")) |>
  mutate(predicted_outcome = ifelse(probability_outcome > 0.5, 1, 0))

test_heart_data_v2

# A tibble: 100 × 5
   heart_attack isFemale   age probability_outcome predicted_outcome
          <dbl>    <dbl> <dbl>               <dbl>             <dbl>
 1            1        0    92               0.573                 1
 2            0        1    78               0.783                 1
 3            0        1    51               0.495                 0
 4            1        1    76               0.766                 1
 5            0        1    80               0.799                 1
 6            0        0    47               0.132                 0
 7            1        0    75               0.371                 0
 8            1        0    89               0.537                 1
 9            1        1    91               0.871                 1
10            0        0    97               0.631                 1
# ℹ 90 more rows
…
