Introduction to Text Mining
…
unnest_token(output = word,

input = [the name of your text variable/column here]).

The argument output = word tells unnest_tokens() that you want the single-word token data row to be named word.

Since text is the column or variable name from lincoln_memorial_df that we want to tokenize, we need to set input = text as demonstrated in the R chunk below.

Before running the script below, think of this question before running the script: besides creating rows for each word, what else did the tokenization process do to our words? After reading the question, run the script below:

lincoln_memorial_df |>
  unnest_tokens(output = word, input = text)

# A tibble: 24 × 2
    line word  
   <int> <chr> 
 1     1 in    
 2     1 this  
 3     1 temple
 4     2 as    
 5     2 in    
 6     2 the   
 7     2 hearts
 8     2 of    
 9     2 the   
10     2 people
# ℹ 14 more rows
…
Tallying nrc sentiments per book to get insight on theme/messaging of specific books:

austen_nrc_joined |>
  group_by(book, sentiment) |>
  summarise(n = n()) |>
  arrange(book, -n) # -n is a short cut notation for desc(n)

`summarise()` has grouped output by 'book'. You can override using the
`.groups` argument.

# A tibble: 60 × 3
# Groups:   book [6]
   book                sentiment        n
   <fct>               <chr>        <int>
 1 Sense & Sensibility positive      7314
 2 Sense & Sensibility trust         4217
 3 Sense & Sensibility negative      3994
 4 Sense & Sensibility anticipation  3590
 5 Sense & Sensibility joy           3256
 6 Sense & Sensibility sadness       2062
 7 Sense & Sensibility fear          1861
 8 Sense & Sensibility surprise      1486
 9 Sense & Sensibility anger         1343
10 Sense & Sensibility disgust       1167
# ℹ 50 more rows
…
sentiment_tally <- merged_bing |>
  group_by(sentiment, word) |>
  summarise(n = n())

`summarise()` has grouped output by 'sentiment'. You can override using the
`.groups` argument.

sentiment_tally

# A tibble: 2,585 × 3
# Groups:   sentiment [2]
   sentiment word           n
   <chr>     <chr>      <int>
 1 negative  abominable    17
 2 negative  abominably     7
 3 negative  abominate      3
 4 negative  abrupt         5
 5 negative  abruptly      12
 6 negative  absence      111
 7 negative  absurd        19
 8 negative  absurdity     12
 9 negative  abuse          8
10 negative  abused         6
# ℹ 2,575 more rows
…
For this task, let us reuse austen_books_tidy and modify prior code we went over to create a data frame with a top 50 word table called top50words:

top50words <- austen_books_tidy |>
  anti_join(stop_words) |>
  group_by(word) |>
  summarize(n = n()) |>
  arrange(desc(n)) |>
  head(50)

Joining with `by = join_by(word)`

top50words 

# A tibble: 50 × 2
   word       n
   <chr>  <int>
 1 miss    1855
 2 time    1337
 3 fanny    862
 4 dear     822
 5 lady     817
 6 sir      806
 7 day      797
 8 emma     787
 9 sister   727
10 house    699
# ℹ 40 more rows
…
