Midterm 1 - Fall 2025
…
Question 1.b. (5 pts)

Using one or more dplyr verbs with rural_development_data, calculate (if necessary) then print the sum of investments that went towards communities that are considered socially vulnerable broken down by state:

# Include your R script below:
rural_development_data |> 
  group_by(state_name) |>
  summarise(total_svi_investments = sum(svi_investments))

# A tibble: 52 × 2
   state_name           total_svi_investments
   <chr>                                <dbl>
 1 Alabama                         1482282596
 2 Alaska                           905049938
 3 Arizona                         2032961995
 4 Arkansas                        1190022116
 5 California                      6710958870
 6 Colorado                         902620147
 7 Connecticut                      115544252
 8 Delaware                         396130890
 9 District of Columbia                363285
10 Florida                         2726760867
# ℹ 42 more rows
…
Tennessee
83354

Texas
78299

Using rural_development_data, fill in the empty table above where you need to identify the top five states that received the most investment counts. You will not get credit unless you write an R code within the following R chunk that prints this insight below that you can copy from. Note: if the R chunk below partially obscures the output you need to copy from, please rerun the code via the R console for an unobstructed view of the output

# Include required R script below:
rural_development_data |>
  group_by(state_name) |>
  summarise(total_counts = sum(number_investments)) |>
  arrange(-total_counts)

# A tibble: 52 × 2
   state_name     total_counts
   <chr>                 <dbl>
 1 North Carolina        87718
 2 Michigan              85854
 3 Missouri              83355
 4 Tennessee             83354
 5 Texas                 78299
 6 Indiana               76055
 7 Louisiana             70335
 8 Ohio                  65364
 9 Pennsylvania          63630
10 Florida               62335
# ℹ 42 more rows
…
Question 8.c. (5 pts)

Use the R chunk below to help you answer the following question: what are the top five plane models within the augmented flights data set and how many scheduled flights did each have within the flights table?

Your answer (in 1-5 sentences):

The plurality of flights lack model information (52,606 flights lacked model info). Beyond that, the top five models with their respective counts are follows: A320-232 (45,831), EMB-145LR (28,027), ERJ 190-100 IGW (23,716), and EMB-145XR ()

# Include required R script below:
flights_v2 |>
  group_by(model) |>
  summarise(flight_counts = n()) |>
  arrange(-flight_counts)

# A tibble: 128 × 2
   model           flight_counts
   <chr>                   <int>
 1 <NA>                    52606
 2 A320-232                45831
 3 EMB-145LR               28027
 4 ERJ 190-100 IGW         23716
 5 EMB-145XR               14051
 6 737-824                 13809
 7 CL-600-2D24             11807
 8 737-7H4                 10389
 9 MD-88                   10191
10 A319-114                 9713
# ℹ 118 more rows
