Reading and writing files - hands-on exercise
…
For storms_data’s variable documentation, please see: https://dplyr.tidyverse.org/reference/storms.html

# Place your script(s) below:
recent_storms <- storms_data |>
  filter(year >= 2020) |>
  filter(year <= 2022) 

write_csv(recent_storms, "data/storms20202022.csv")

# extra: another way of filter for numeric variables between two values

storms_data |>
  filter(between(year, 2020, 2022))

# A tibble: 1,926 × 13
   name    year month   day  hour   lat  long status     category  wind pressure
   <chr>  <dbl> <dbl> <int> <dbl> <dbl> <dbl> <fct>         <dbl> <int>    <int>
 1 Arthur  2020     5    16    18  28   -78.7 tropical …       NA    30     1008
 2 Arthur  2020     5    17     0  28.9 -78   tropical …       NA    35     1006
 3 Arthur  2020     5    17     6  29.6 -77.6 tropical …       NA    35     1004
 4 Arthur  2020     5    17    12  30.3 -77.5 tropical …       NA    35     1003
 5 Arthur  2020     5    17    18  31   -77.3 tropical …       NA    40     1003
 6 Arthur  2020     5    18     0  31.9 -77   tropical …       NA    40     1003
 7 Arthur  2020     5    18     6  33.1 -76.7 tropical …       NA    40     1002
 8 Arthur  2020     5    18    12  34.4 -75.9 tropical …       NA    45     1000
 9 Arthur  2020     5    18    18  35.5 -74.7 tropical …       NA    45      993
10 Arthur  2020     5    19     0  36.2 -73.1 tropical …       NA    50      991
# ℹ 1,916 more rows
# ℹ 2 more variables: tropicalstorm_force_diameter <int>,
#   hurricane_force_diameter <int>
…
