Reading and writing files - hands-on exercise
…
Task 3:

Using countries_shrunk and one of more of the dplyr verbs you learned in class, identify the top five countries with the highest population drop. Write your R code below but make sure to fill in the table provided below with your answers:

# Place your code below:
 countries_shrunk |>
   arrange(population_change)

# A tibble: 24 × 4
   country                 Y1995     Y2013 population_change
   <chr>                   <dbl>     <dbl>             <dbl>
 1 Ukraine              51146967  45238805          -5908162
 2 Russian Federation  148602147 142833689          -5768458
 3 Romania              22963512  21698585          -1264927
 4 Bulgaria              8358116   7222943          -1135173
 5 Republic of Moldova   4339081   3487204           -851877
 6 Belarus              10189075   9356678           -832397
 7 Georgia               5067143   4340895           -726248
 8 Lithuania             3628079   3016933           -611146
 9 Latvia                2487988   2050317           -437671
10 Germany              83147770  82726626           -421144
# ℹ 14 more rows
…
