Exercise 9
…
Using daily_sales, use day with fct_recode to recode day as either Weekend or Weekday. Monday-Friday should be re-coded as “Weekday” while Saturday-Sunday should be re-coded as “Weekend”. Save the resulting recoded table (data frame) as day_analysis_v3 in your R environment. Print a sample of day_analysis_v3 using head() or glipmse() below too.

# place your code below
day_analysis_v3 <- daily_sales |>
  mutate(day = fct_recode(day, 
                         "Weekend" = "Saturday",
                         "Weekend" = "Sunday",
                         "Weekday" = "Monday",
                         "Weekday" = "Tuesday",
                         "Weekday" = "Wednesday",
                         "Weekday" = "Thursday",
                         "Weekday" = "Friday"))
day_analysis_v3

# A tibble: 31 × 3
   date       day     sales
   <date>     <fct>   <dbl>
 1 2024-10-01 Weekday  430.
 2 2024-10-02 Weekday  418.
 3 2024-10-03 Weekday  148.
 4 2024-10-04 Weekday  498.
 5 2024-10-05 Weekend  297.
 6 2024-10-06 Weekend  594.
 7 2024-10-07 Weekday  165.
 8 2024-10-08 Weekday  437.
 9 2024-10-09 Weekday  123.
10 2024-10-10 Weekday  303.
# ℹ 21 more rows
…
