Statistical Programming in R (Fall 2025) - 4 Homework 3: dplyr
…
4.5 Task 4

Using the R code chunk below, print a data subset of midwest where inmetro is equals to 1

# Include your code below:
midwest |>
  filter(inmetro == 1)

# A tibble: 150 × 28
     PID county  state  area poptotal popdensity popwhite popblack popamerindian
   <int> <chr>   <chr> <dbl>    <int>      <dbl>    <int>    <int>         <int>
 1   564 BOONE   IL    0.017    30806      1812.    29344      127            46
 2   570 CHAMPA… IL    0.058   173025      2983.   146506    16559           331
 3   574 CLINTON IL    0.029    33944      1170.    32688     1021            48
 4   576 COOK    IL    0.058  5105067     88018.  3204947  1317147         10289
 5   579 DE KALB IL    0.038    77932      2051.    72968     2069           123
 6   582 DU PAGE IL    0.02    781666     39083.   714905    15462           962
 7   592 GRUNDY  IL    0.026    32337      1244.    31864       21            45
 8   597 HENRY   IL    0.051    51159      1003.    49969      657            63
 9   602 JERSEY  IL    0.023    20539       893     20346       96            43
10   605 KANE    IL    0.029   317471     10947.   269675    19006           620
# ℹ 140 more rows
# ℹ 19 more variables: popasian <int>, popother <int>, percwhite <dbl>,
#   percblack <dbl>, percamerindan <dbl>, percasian <dbl>, percother <dbl>,
#   popadults <int>, perchsd <dbl>, percollege <dbl>, percprof <dbl>,
#   poppovertyknown <int>, percpovertyknown <dbl>, percbelowpoverty <dbl>,
#   percchildbelowpovert <dbl>, percadultpoverty <dbl>,
#   percelderlypoverty <dbl>, inmetro <int>, category <chr>

4.6 Task 5

Using the R code chunk below, print a data subset of midwest where state is equals to IL

# Include your code below:
midwest |>
  filter(state == "IL")

# A tibble: 102 × 28
     PID county  state  area poptotal popdensity popwhite popblack popamerindian
   <int> <chr>   <chr> <dbl>    <int>      <dbl>    <int>    <int>         <int>
 1   561 ADAMS   IL    0.052    66090      1271.    63917     1702            98
 2   562 ALEXAN… IL    0.014    10626       759      7054     3496            19
 3   563 BOND    IL    0.022    14991       681.    14477      429            35
 4   564 BOONE   IL    0.017    30806      1812.    29344      127            46
 5   565 BROWN   IL    0.018     5836       324.     5264      547            14
 6   566 BUREAU  IL    0.05     35688       714.    35157       50            65
 7   567 CALHOUN IL    0.017     5322       313.     5298        1             8
 8   568 CARROLL IL    0.027    16805       622.    16519      111            30
 9   569 CASS    IL    0.024    13437       560.    13384       16             8
10   570 CHAMPA… IL    0.058   173025      2983.   146506    16559           331
# ℹ 92 more rows
# ℹ 19 more variables: popasian <int>, popother <int>, percwhite <dbl>,
#   percblack <dbl>, percamerindan <dbl>, percasian <dbl>, percother <dbl>,
#   popadults <int>, perchsd <dbl>, percollege <dbl>, percprof <dbl>,
#   poppovertyknown <int>, percpovertyknown <dbl>, percbelowpoverty <dbl>,
#   percchildbelowpovert <dbl>, percadultpoverty <dbl>,
#   percelderlypoverty <dbl>, inmetro <int>, category <chr>

4.7 Task 6

Using the R code chunk below, print a data subset of midwest where state is equals to IL and inmetro is equals to 1 (Hint: see filter() verb - multiple filtering variables section of Exercise3)

# Include your code below:
midwest |>
  filter(state == "IL") |>
  filter(inmetro == 1)

# A tibble: 28 × 28
     PID county  state  area poptotal popdensity popwhite popblack popamerindian
   <int> <chr>   <chr> <dbl>    <int>      <dbl>    <int>    <int>         <int>
 1   564 BOONE   IL    0.017    30806      1812.    29344      127            46
 2   570 CHAMPA… IL    0.058   173025      2983.   146506    16559           331
 3   574 CLINTON IL    0.029    33944      1170.    32688     1021            48
 4   576 COOK    IL    0.058  5105067     88018.  3204947  1317147         10289
 5   579 DE KALB IL    0.038    77932      2051.    72968     2069           123
 6   582 DU PAGE IL    0.02    781666     39083.   714905    15462           962
 7   592 GRUNDY  IL    0.026    32337      1244.    31864       21            45
 8   597 HENRY   IL    0.051    51159      1003.    49969      657            63
 9   602 JERSEY  IL    0.023    20539       893     20346       96            43
10   605 KANE    IL    0.029   317471     10947.   269675    19006           620
# ℹ 18 more rows
# ℹ 19 more variables: popasian <int>, popother <int>, percwhite <dbl>,
#   percblack <dbl>, percamerindan <dbl>, percasian <dbl>, percother <dbl>,
#   popadults <int>, perchsd <dbl>, percollege <dbl>, percprof <dbl>,
#   poppovertyknown <int>, percpovertyknown <dbl>, percbelowpoverty <dbl>,
#   percchildbelowpovert <dbl>, percadultpoverty <dbl>,
#   percelderlypoverty <dbl>, inmetro <int>, category <chr>

# alternative 1: filter(state == "IL" & inmetro == 1) 
# alternative 2: filter(state == "IL", inmetro == 1) 

4.8 Task 7

Using the R code chunk below, print a data subset of midwest where state is equals to IL or IN (Hint: %in% from Exercise3.qmd)

# Include your code below:
midwest |>
  filter(state %in% c("IL", "IN"))

# A tibble: 194 × 28
     PID county  state  area poptotal popdensity popwhite popblack popamerindian
   <int> <chr>   <chr> <dbl>    <int>      <dbl>    <int>    <int>         <int>
 1   561 ADAMS   IL    0.052    66090      1271.    63917     1702            98
 2   562 ALEXAN… IL    0.014    10626       759      7054     3496            19
 3   563 BOND    IL    0.022    14991       681.    14477      429            35
 4   564 BOONE   IL    0.017    30806      1812.    29344      127            46
 5   565 BROWN   IL    0.018     5836       324.     5264      547            14
 6   566 BUREAU  IL    0.05     35688       714.    35157       50            65
 7   567 CALHOUN IL    0.017     5322       313.     5298        1             8
 8   568 CARROLL IL    0.027    16805       622.    16519      111            30
 9   569 CASS    IL    0.024    13437       560.    13384       16             8
10   570 CHAMPA… IL    0.058   173025      2983.   146506    16559           331
# ℹ 184 more rows
# ℹ 19 more variables: popasian <int>, popother <int>, percwhite <dbl>,
#   percblack <dbl>, percamerindan <dbl>, percasian <dbl>, percother <dbl>,
#   popadults <int>, perchsd <dbl>, percollege <dbl>, percprof <dbl>,
#   poppovertyknown <int>, percpovertyknown <dbl>, percbelowpoverty <dbl>,
#   percchildbelowpovert <dbl>, percadultpoverty <dbl>,
#   percelderlypoverty <dbl>, inmetro <int>, category <chr>
…
4.12 Task 11

Within the R code chunk below, print a sorted high_children_poverty using arrange() with poptotal in ascending order.

# Include your code below:
high_children_poverty |>
  arrange(poptotal)

# A tibble: 45 × 28
     PID county  state  area poptotal popdensity popwhite popblack popamerindian
   <int> <chr>   <chr> <dbl>    <int>      <dbl>    <int>    <int>         <int>
 1  3020 MENOMI… WI    0.021     3890       185.      416        0          3469
 2   636 POPE    IL    0.022     4373       199.     4072      266            15
 3   595 HARDIN  IL    0.009     5189       577.     5062       85            16
 4   590 GALLAT… IL    0.019     6909       364.     6842       42            10
 5   637 PULASKI IL    0.011     7523       684.     5032     2466             8
 6  1239 LAKE    MI    0.035     8583       245.     7337     1146            81
 7  3001 FOREST  WI    0.06      8776       146.     7842      127           780
 8  1256 MONTMO… MI    0.033     8936       271.     8861        1            48
 9  1197 ALCONA  MI    0.041    10145       247.    10026       27            56
10   562 ALEXAN… IL    0.014    10626       759      7054     3496            19
# ℹ 35 more rows
# ℹ 19 more variables: popasian <int>, popother <int>, percwhite <dbl>,
#   percblack <dbl>, percamerindan <dbl>, percasian <dbl>, percother <dbl>,
#   popadults <int>, perchsd <dbl>, percollege <dbl>, percprof <dbl>,
#   poppovertyknown <int>, percpovertyknown <dbl>, percbelowpoverty <dbl>,
#   percchildbelowpovert <dbl>, percadultpoverty <dbl>,
#   percelderlypoverty <dbl>, inmetro <int>, category <chr>

4.13 Task 12

Within the R code chunk below, print a sorted high_children_poverty using arrange() with percchildbelowpovert in descending order.

# Include your code below:
high_children_poverty |>
  arrange(desc(percchildbelowpovert))

# A tibble: 45 × 28
     PID county  state  area poptotal popdensity popwhite popblack popamerindian
   <int> <chr>   <chr> <dbl>    <int>      <dbl>    <int>    <int>         <int>
 1  3020 MENOMI… WI    0.021     3890       185.      416        0          3469
 2   562 ALEXAN… IL    0.014    10626       759      7054     3496            19
 3   637 PULASKI IL    0.011     7523       684.     5032     2466             8
 4  1239 LAKE    MI    0.035     8583       245.     7337     1146            81
 5  2081 SCIOTO  OH    0.035    80327      2295.    77253     2458           409
 6  2074 PIKE    OH    0.026    24249       933.    23807      327            72
 7   636 POPE    IL    0.022     4373       199.     4072      266            15
 8  1214 CLARE   MI    0.034    24952       734.    24665       40           160
 9   595 HARDIN  IL    0.009     5189       577.     5062       85            16
10  2009 ADAMS   OH    0.035    25371       725.    25212       47            67
# ℹ 35 more rows
# ℹ 19 more variables: popasian <int>, popother <int>, percwhite <dbl>,
#   percblack <dbl>, percamerindan <dbl>, percasian <dbl>, percother <dbl>,
#   popadults <int>, perchsd <dbl>, percollege <dbl>, percprof <dbl>,
#   poppovertyknown <int>, percpovertyknown <dbl>, percbelowpoverty <dbl>,
#   percchildbelowpovert <dbl>, percadultpoverty <dbl>,
#   percelderlypoverty <dbl>, inmetro <int>, category <chr>
