Statistical Programming in R (Fall 2025) - 9 Homework 8: Text Data
…
9.14 Task 10 (1 pt)

Using news_headlines and the R chunk below, create a topic indicator variable to detect any crime-related topic or word of your choosing. Then only print a sample of your data that contains the key word of your choosing. Make sure you detect at least one matching row with your keyword (otherwise, pick another keyword).

# Place your script below:
news_headlines_v2 <- news_headlines |>
  mutate(robbery_mentioned = str_detect(headline, regex("robbery", ignore_case = TRUE))) 

news_headlines_v2 |>
  filter(robbery_mentioned) |>
  relocate(headline)

# A tibble: 53 × 7
   headline           datetime url   teaser feed_name feed_url robbery_mentioned
   <chr>              <chr>    <chr> <chr>  <chr>     <chr>    <lgl>            
 1 OJ Simpson has go… July 18… http… O.J. … abc7ny.c… http://… TRUE             
 2 Video: Suspects i… July 19… http… Distu… abc7ny.c… http://… TRUE             
 3 Man fatally stabb… July 20… http… The 3… abc7ny.c… http://… TRUE             
 4 Police arrest 4th… July 21… http… Polic… abc7ny.c… http://… TRUE             
 5 3 charged in assa… July 25… http… Polic… abc7ny.c… http://… TRUE             
 6 Search on for man… July 29… http… Accor… abc7ny.c… http://… TRUE             
 7 Shootout erupts a… August … http… Polic… abc7ny.c… http://… TRUE             
 8 Pennsylvania stat… August … http… Penns… abc7ny.c… http://… TRUE             
 9 Man shot while si… August … http… The 3… abc7ny.c… http://… TRUE             
10 Police fatally sh… August … http… Polic… abc7ny.c… http://… TRUE             
# ℹ 43 more rows
…
