Statistical Programming in R (Fall 2025) - 6 Homework 5: File Reading
…
Texas
78299
15995187413

Using data you created in Task 1, fill in the empty table above. You will not get credit unless you write an R code that prints this insight below (Homework Hint: dplyr verbs for summarizing and sorting/arranging). Note: if the R chunk below partially obscures the output you need to copy from, please rerun the code via the R console for an unobstructed view of the output

# Your solution below:
task1_data |>
  group_by(state_name) |>
  summarise(investment_counts = sum(number_investments),
            total_investment_dollars = sum(total_investment_dollars)) |>
  arrange(desc(investment_counts))

# A tibble: 52 × 3
   state_name     investment_counts total_investment_dollars
   <chr>                      <dbl>                    <dbl>
 1 North Carolina             87718              19625458505
 2 Michigan                   85854              11861916179
 3 Missouri                   83355              13379011326
 4 Tennessee                  83354              13819292794
 5 Texas                      78299              15995187413
 6 Indiana                    76055              10344087246
 7 Louisiana                  70335              13359196375
 8 Ohio                       65364               9817010415
 9 Pennsylvania               63630              10431877304
10 Florida                    62335              13333056773
# ℹ 42 more rows
…
